Date,High,Low,Open,Close,Volume,Adj Close,Ticker,Date
2021-03-15,124.0,120.41999816894531,121.41000366210938,123.98999786376953,92403800.0,123.25741577148438,AAPL,2021-03-15
2021-03-16,127.22000122070312,124.72000122070312,125.69999694824219,125.56999969482422,115227900.0,124.82807922363281,AAPL,2021-03-16
2021-03-17,125.86000061035156,122.33999633789062,124.05000305175781,124.76000213623047,111932600.0,124.02286529541016,AAPL,2021-03-17
2021-03-18,123.18000030517578,120.31999969482422,122.87999725341797,120.52999877929688,121229700.0,119.81785583496094,AAPL,2021-03-18
2021-03-19,121.43000030517578,119.68000030517578,119.9000015258789,119.98999786376953,185549500.0,119.28105163574219,AAPL,2021-03-19
2021-03-22,123.87000274658203,120.26000213623047,120.33000183105469,123.38999938964844,111912300.0,122.66097259521484,AAPL,2021-03-22
2021-03-23,124.23999786376953,122.13999938964844,123.33000183105469,122.54000091552734,95467100.0,121.81599426269531,AAPL,2021-03-23
2021-03-24,122.9000015258789,120.06999969482422,122.81999969482422,120.08999633789062,88530500.0,119.38045501708984,AAPL,2021-03-24
2021-03-25,121.66000366210938,119.0,119.54000091552734,120.58999633789062,98844700.0,119.87749481201172,AAPL,2021-03-25
2021-03-26,121.4800033569336,118.91999816894531,120.3499984741211,121.20999908447266,94071200.0,120.49383544921875,AAPL,2021-03-26
2021-03-29,122.58000183105469,120.7300033569336,121.6500015258789,121.38999938964844,80819200.0,120.67277526855469,AAPL,2021-03-29
2021-03-30,120.4000015258789,118.86000061035156,120.11000061035156,119.9000015258789,85671900.0,119.19158172607422,AAPL,2021-03-30
2021-03-31,123.5199966430664,121.1500015258789,121.6500015258789,122.1500015258789,118323800.0,121.42829132080078,AAPL,2021-03-31
2021-04-01,124.18000030517578,122.48999786376953,123.66000366210938,123.0,75089100.0,122.27326965332031,AAPL,2021-04-01
2021-04-05,126.16000366210938,123.06999969482422,123.87000274658203,125.9000015258789,88651200.0,125.15613555908203,AAPL,2021-04-05
2021-04-06,127.12999725341797,125.6500015258789,126.5,126.20999908447266,80171300.0,125.46430206298828,AAPL,2021-04-06
2021-04-07,127.91999816894531,125.13999938964844,125.83000183105469,127.9000015258789,83466700.0,127.14431762695312,AAPL,2021-04-07
2021-04-08,130.38999938964844,128.52000427246094,128.9499969482422,130.36000061035156,88844600.0,129.58978271484375,AAPL,2021-04-08
2021-04-09,133.0399932861328,129.47000122070312,129.8000030517578,133.0,106686700.0,132.2141876220703,AAPL,2021-04-09
2021-04-12,132.85000610351562,130.6300048828125,132.52000427246094,131.24000549316406,91420000.0,130.46458435058594,AAPL,2021-04-12
2021-04-13,134.66000366210938,131.92999267578125,132.44000244140625,134.42999267578125,91266500.0,133.63572692871094,AAPL,2021-04-13
2021-04-14,135.0,131.66000366210938,134.94000244140625,132.02999877929688,87222800.0,131.2499237060547,AAPL,2021-04-14
2021-04-15,135.0,133.63999938964844,133.82000732421875,134.5,89347100.0,133.70530700683594,AAPL,2021-04-15
2021-04-16,134.6699981689453,133.27999877929688,134.3000030517578,134.16000366210938,84922400.0,133.36734008789062,AAPL,2021-04-16
2021-04-19,135.47000122070312,133.33999633789062,133.50999450683594,134.83999633789062,94264200.0,134.04330444335938,AAPL,2021-04-19
2021-04-20,135.52999877929688,131.80999755859375,135.02000427246094,133.11000061035156,94812300.0,132.32354736328125,AAPL,2021-04-20
2021-04-21,133.75,131.3000030517578,132.36000061035156,133.5,68847100.0,132.71121215820312,AAPL,2021-04-21
2021-04-22,134.14999389648438,131.41000366210938,133.0399932861328,131.94000244140625,84566500.0,131.1604461669922,AAPL,2021-04-22
2021-04-23,135.1199951171875,132.16000366210938,132.16000366210938,134.32000732421875,78657500.0,133.52638244628906,AAPL,2021-04-23
2021-04-26,135.05999755859375,133.55999755859375,134.8300018310547,134.72000122070312,66905100.0,133.9240264892578,AAPL,2021-04-26
2021-04-27,135.41000366210938,134.11000061035156,135.00999450683594,134.38999938964844,66015800.0,133.595947265625,AAPL,2021-04-27
2021-04-28,135.02000427246094,133.0800018310547,134.30999755859375,133.5800018310547,107760100.0,132.79075622558594,AAPL,2021-04-28
2021-04-29,137.07000732421875,132.4499969482422,136.47000122070312,133.47999572753906,151101000.0,132.69134521484375,AAPL,2021-04-29
2021-04-30,133.55999755859375,131.07000732421875,131.77999877929688,131.4600067138672,109839500.0,130.68328857421875,AAPL,2021-04-30
2021-05-03,134.07000732421875,131.8300018310547,132.0399932861328,132.5399932861328,75135100.0,131.75689697265625,AAPL,2021-05-03
2021-05-04,131.49000549316406,126.69999694824219,131.19000244140625,127.8499984741211,137564700.0,127.0946044921875,AAPL,2021-05-04
2021-05-05,130.4499969482422,127.97000122070312,129.1999969482422,128.10000610351562,84000900.0,127.3431396484375,AAPL,2021-05-05
2021-05-06,129.75,127.12999725341797,127.88999938964844,129.74000549316406,78128300.0,128.97344970703125,AAPL,2021-05-06
2021-05-07,131.25999450683594,129.47999572753906,130.85000610351562,130.2100067138672,78973300.0,129.66055297851562,AAPL,2021-05-07
2021-05-10,129.5399932861328,126.80999755859375,129.41000366210938,126.8499984741211,88071200.0,126.31471252441406,AAPL,2021-05-10
2021-05-11,126.2699966430664,122.7699966430664,123.5,125.91000366210938,126142800.0,125.37867736816406,AAPL,2021-05-11
2021-05-12,124.63999938964844,122.25,123.4000015258789,122.7699966430664,112172300.0,122.25192260742188,AAPL,2021-05-12
2021-05-13,126.1500015258789,124.26000213623047,124.58000183105469,124.97000122070312,105861300.0,124.4426498413086,AAPL,2021-05-13
2021-05-14,127.88999938964844,125.8499984741211,126.25,127.44999694824219,81918000.0,126.91217803955078,AAPL,2021-05-14
2021-05-17,126.93000030517578,125.16999816894531,126.81999969482422,126.2699966430664,74244600.0,125.73715209960938,AAPL,2021-05-17
2021-05-18,126.98999786376953,124.77999877929688,126.55999755859375,124.8499984741211,63342900.0,124.32315063476562,AAPL,2021-05-18
2021-05-19,124.91999816894531,122.86000061035156,123.16000366210938,124.69000244140625,92612000.0,124.16382598876953,AAPL,2021-05-19
2021-05-20,127.72000122070312,125.0999984741211,125.2300033569336,127.30999755859375,76857100.0,126.77276611328125,AAPL,2021-05-20
2021-05-21,128.0,125.20999908447266,127.81999969482422,125.43000030517578,79295400.0,124.90070343017578,AAPL,2021-05-21
2021-05-24,127.94000244140625,125.94000244140625,126.01000213623047,127.0999984741211,63092900.0,126.56365203857422,AAPL,2021-05-24
2021-05-25,128.32000732421875,126.31999969482422,127.81999969482422,126.9000015258789,72009500.0,126.364501953125,AAPL,2021-05-25
2021-05-26,127.38999938964844,126.41999816894531,126.95999908447266,126.8499984741211,56575900.0,126.31471252441406,AAPL,2021-05-26
2021-05-27,127.63999938964844,125.08000183105469,126.44000244140625,125.27999877929688,94625600.0,124.75133514404297,AAPL,2021-05-27
2021-05-28,125.80000305175781,124.55000305175781,125.56999969482422,124.61000061035156,71311100.0,124.08416748046875,AAPL,2021-05-28
2021-06-01,125.3499984741211,123.94000244140625,125.08000183105469,124.27999877929688,67637100.0,123.75556182861328,AAPL,2021-06-01
2021-06-02,125.23999786376953,124.05000305175781,124.27999877929688,125.05999755859375,59278900.0,124.53226470947266,AAPL,2021-06-02
2021-06-03,124.8499984741211,123.12999725341797,124.68000030517578,123.54000091552734,76229200.0,123.01868438720703,AAPL,2021-06-03
2021-06-04,126.16000366210938,123.8499984741211,124.06999969482422,125.88999938964844,75169300.0,125.3587646484375,AAPL,2021-06-04
2021-06-07,126.31999969482422,124.83000183105469,126.16999816894531,125.9000015258789,71057600.0,125.36872100830078,AAPL,2021-06-07
2021-06-08,128.4600067138672,126.20999908447266,126.5999984741211,126.73999786376953,74403800.0,126.2051773071289,AAPL,2021-06-08
2021-06-09,127.75,126.5199966430664,127.20999908447266,127.12999725341797,56877900.0,126.5935287475586,AAPL,2021-06-09
2021-06-10,128.19000244140625,125.94000244140625,127.0199966430664,126.11000061035156,71186400.0,125.57783508300781,AAPL,2021-06-10
2021-06-11,127.44000244140625,126.0999984741211,126.52999877929688,127.3499984741211,53522400.0,126.8125991821289,AAPL,2021-06-11
2021-06-14,130.5399932861328,127.06999969482422,127.81999969482422,130.47999572753906,96906500.0,129.92938232421875,AAPL,2021-06-14
2021-06-15,130.60000610351562,129.38999938964844,129.94000244140625,129.63999938964844,62746300.0,129.09292602539062,AAPL,2021-06-15
2021-06-16,130.88999938964844,128.4600067138672,130.3699951171875,130.14999389648438,91815000.0,129.60079956054688,AAPL,2021-06-16
2021-06-17,132.5500030517578,129.64999389648438,129.8000030517578,131.7899932861328,96721700.0,131.23385620117188,AAPL,2021-06-17
2021-06-18,131.50999450683594,130.24000549316406,130.7100067138672,130.4600067138672,108953300.0,129.90948486328125,AAPL,2021-06-18
2021-06-21,132.41000366210938,129.2100067138672,130.3000030517578,132.3000030517578,79663300.0,131.74169921875,AAPL,2021-06-21
2021-06-22,134.0800018310547,131.6199951171875,132.1300048828125,133.97999572753906,74783600.0,133.4146270751953,AAPL,2021-06-22
2021-06-23,134.32000732421875,133.22999572753906,133.77000427246094,133.6999969482422,60214200.0,133.13580322265625,AAPL,2021-06-23
2021-06-24,134.63999938964844,132.92999267578125,134.4499969482422,133.41000366210938,68711000.0,132.84703063964844,AAPL,2021-06-24
2021-06-25,133.88999938964844,132.80999755859375,133.4600067138672,133.11000061035156,70783700.0,132.5482940673828,AAPL,2021-06-25
2021-06-28,135.25,133.35000610351562,133.41000366210938,134.77999877929688,62111300.0,134.21124267578125,AAPL,2021-06-28
2021-06-29,136.49000549316406,134.35000610351562,134.8000030517578,136.3300018310547,64556100.0,135.75469970703125,AAPL,2021-06-29
2021-06-30,137.41000366210938,135.8699951171875,136.1699981689453,136.9600067138672,63261400.0,136.38204956054688,AAPL,2021-06-30
2021-07-01,137.3300018310547,135.75999450683594,136.60000610351562,137.27000427246094,52485800.0,136.6907501220703,AAPL,2021-07-01
2021-07-02,140.0,137.75,137.89999389648438,139.9600067138672,78852600.0,139.36940002441406,AAPL,2021-07-02
2021-07-06,143.14999389648438,140.07000732421875,140.07000732421875,142.02000427246094,108181800.0,141.4207000732422,AAPL,2021-07-06
2021-07-07,144.88999938964844,142.66000366210938,143.5399932861328,144.57000732421875,104911600.0,143.95994567871094,AAPL,2021-07-07
2021-07-08,144.05999755859375,140.6699981689453,141.5800018310547,143.24000549316406,105575500.0,142.63555908203125,AAPL,2021-07-08
2021-07-09,145.64999389648438,142.64999389648438,142.75,145.11000061035156,99890800.0,144.49766540527344,AAPL,2021-07-09
2021-07-12,146.32000732421875,144.0,146.2100067138672,144.5,76299700.0,143.89022827148438,AAPL,2021-07-12
2021-07-13,147.4600067138672,143.6300048828125,144.02999877929688,145.63999938964844,100827100.0,145.02542114257812,AAPL,2021-07-13
2021-07-14,149.57000732421875,147.67999267578125,148.10000610351562,149.14999389648438,127050800.0,148.52059936523438,AAPL,2021-07-14
2021-07-15,150.0,147.08999633789062,149.24000549316406,148.47999572753906,106820300.0,147.85342407226562,AAPL,2021-07-15
2021-07-16,149.75999450683594,145.8800048828125,148.4600067138672,146.38999938964844,93251400.0,145.7722625732422,AAPL,2021-07-16
2021-07-19,144.07000732421875,141.6699981689453,143.75,142.4499969482422,121434600.0,141.848876953125,AAPL,2021-07-19
2021-07-20,147.10000610351562,142.9600067138672,143.4600067138672,146.14999389648438,96350000.0,145.53326416015625,AAPL,2021-07-20
2021-07-21,146.1300048828125,144.6300048828125,145.52999877929688,145.39999389648438,74993500.0,144.7864227294922,AAPL,2021-07-21
2021-07-22,148.1999969482422,145.80999755859375,145.94000244140625,146.8000030517578,77338200.0,146.18052673339844,AAPL,2021-07-22
2021-07-23,148.72000122070312,146.9199981689453,147.5500030517578,148.55999755859375,71447400.0,147.93309020996094,AAPL,2021-07-23
2021-07-26,149.8300018310547,147.6999969482422,148.27000427246094,148.99000549316406,72434100.0,148.3612823486328,AAPL,2021-07-26
2021-07-27,149.2100067138672,145.5500030517578,149.1199951171875,146.77000427246094,104818600.0,146.15065002441406,AAPL,2021-07-27
2021-07-28,146.97000122070312,142.5399932861328,144.80999755859375,144.97999572753906,118931200.0,144.3682098388672,AAPL,2021-07-28
2021-07-29,146.5500030517578,144.5800018310547,144.69000244140625,145.63999938964844,56699500.0,145.02542114257812,AAPL,2021-07-29
2021-07-30,146.3300018310547,144.11000061035156,144.3800048828125,145.86000061035156,70440600.0,145.24447631835938,AAPL,2021-07-30
2021-08-02,146.9499969482422,145.25,146.36000061035156,145.52000427246094,62880000.0,144.90594482421875,AAPL,2021-08-02
2021-08-03,148.0399932861328,145.17999267578125,145.80999755859375,147.36000061035156,64786600.0,146.7381591796875,AAPL,2021-08-03
2021-08-04,147.7899932861328,146.27999877929688,147.27000427246094,146.9499969482422,56368300.0,146.32989501953125,AAPL,2021-08-04
2021-08-05,147.83999633789062,146.1699981689453,146.97999572753906,147.05999755859375,46397700.0,146.43942260742188,AAPL,2021-08-05
2021-08-06,147.11000061035156,145.6300048828125,146.35000610351562,146.13999938964844,54126800.0,145.7413330078125,AAPL,2021-08-06
2021-08-09,146.6999969482422,145.52000427246094,146.1999969482422,146.08999633789062,48908700.0,145.69146728515625,AAPL,2021-08-09
2021-08-10,147.7100067138672,145.3000030517578,146.44000244140625,145.60000610351562,69023100.0,145.20281982421875,AAPL,2021-08-10
2021-08-11,146.72000122070312,145.52999877929688,146.0500030517578,145.86000061035156,48493500.0,145.46209716796875,AAPL,2021-08-11
2021-08-12,149.0500030517578,145.83999633789062,146.19000244140625,148.88999938964844,72282600.0,148.4838409423828,AAPL,2021-08-12
2021-08-13,149.44000244140625,148.27000427246094,148.97000122070312,149.10000610351562,59375000.0,148.6932830810547,AAPL,2021-08-13
2021-08-16,151.19000244140625,146.47000122070312,148.5399932861328,151.1199951171875,103296000.0,150.70774841308594,AAPL,2021-08-16
2021-08-17,151.67999267578125,149.08999633789062,150.22999572753906,150.19000244140625,92229700.0,149.78030395507812,AAPL,2021-08-17
2021-08-18,150.72000122070312,146.14999389648438,149.8000030517578,146.36000061035156,86326000.0,145.9607391357422,AAPL,2021-08-18
2021-08-19,148.0,144.5,145.02999877929688,146.6999969482422,86960300.0,146.2998046875,AAPL,2021-08-19
2021-08-20,148.5,146.77999877929688,147.44000244140625,148.19000244140625,60549600.0,147.78575134277344,AAPL,2021-08-20
2021-08-23,150.19000244140625,147.88999938964844,148.30999755859375,149.7100067138672,60131800.0,149.30162048339844,AAPL,2021-08-23
2021-08-24,150.86000061035156,149.14999389648438,149.4499969482422,149.6199951171875,48606400.0,149.2118377685547,AAPL,2021-08-24
2021-08-25,150.32000732421875,147.8000030517578,149.80999755859375,148.36000061035156,58991300.0,147.9552764892578,AAPL,2021-08-25
2021-08-26,149.1199951171875,147.50999450683594,148.35000610351562,147.5399932861328,48597200.0,147.13751220703125,AAPL,2021-08-26
2021-08-27,148.75,146.8300018310547,147.47999572753906,148.60000610351562,55802400.0,148.19464111328125,AAPL,2021-08-27
2021-08-30,153.49000549316406,148.61000061035156,149.0,153.1199951171875,90956700.0,152.70230102539062,AAPL,2021-08-30
2021-08-31,152.8000030517578,151.2899932861328,152.66000366210938,151.8300018310547,86453100.0,151.4158172607422,AAPL,2021-08-31
2021-09-01,154.97999572753906,152.33999633789062,152.8300018310547,152.50999450683594,80313700.0,152.09396362304688,AAPL,2021-09-01
2021-09-02,154.72000122070312,152.39999389648438,153.8699951171875,153.64999389648438,71115500.0,153.23085021972656,AAPL,2021-09-02
2021-09-03,154.6300048828125,153.08999633789062,153.75999450683594,154.3000030517578,57808700.0,153.87908935546875,AAPL,2021-09-03
2021-09-07,157.25999450683594,154.38999938964844,154.97000122070312,156.69000244140625,82278300.0,156.2625732421875,AAPL,2021-09-07
2021-09-08,157.0399932861328,153.97999572753906,156.97999572753906,155.11000061035156,74420200.0,154.68687438964844,AAPL,2021-09-08
2021-09-09,156.11000061035156,153.9499969482422,155.49000549316406,154.07000732421875,57305700.0,153.64971923828125,AAPL,2021-09-09
2021-09-10,155.47999572753906,148.6999969482422,155.0,148.97000122070312,140893200.0,148.56361389160156,AAPL,2021-09-10
2021-09-13,151.4199981689453,148.75,150.6300048828125,149.5500030517578,102404300.0,149.1420440673828,AAPL,2021-09-13
2021-09-14,151.07000732421875,146.91000366210938,150.35000610351562,148.1199951171875,109296300.0,147.71592712402344,AAPL,2021-09-14
2021-09-15,149.44000244140625,146.3699951171875,148.55999755859375,149.02999877929688,83281300.0,148.62344360351562,AAPL,2021-09-15
2021-09-16,148.97000122070312,147.22000122070312,148.44000244140625,148.7899932861328,68034100.0,148.38409423828125,AAPL,2021-09-16
2021-09-17,148.82000732421875,145.75999450683594,148.82000732421875,146.05999755859375,129868800.0,145.66156005859375,AAPL,2021-09-17
2021-09-20,144.83999633789062,141.27000427246094,143.8000030517578,142.94000244140625,123478900.0,142.55007934570312,AAPL,2021-09-20
2021-09-21,144.60000610351562,142.77999877929688,143.92999267578125,143.42999267578125,75834000.0,143.03872680664062,AAPL,2021-09-21
2021-09-22,146.42999267578125,143.6999969482422,144.4499969482422,145.85000610351562,76404300.0,145.45213317871094,AAPL,2021-09-22
2021-09-23,147.0800018310547,145.63999938964844,146.64999389648438,146.8300018310547,64838200.0,146.42947387695312,AAPL,2021-09-23
2021-09-24,147.47000122070312,145.55999755859375,145.66000366210938,146.9199981689453,53477900.0,146.5192108154297,AAPL,2021-09-24
2021-09-27,145.9600067138672,143.82000732421875,145.47000122070312,145.3699951171875,74150700.0,144.9734344482422,AAPL,2021-09-27
2021-09-28,144.75,141.69000244140625,143.25,141.91000366210938,108972300.0,141.5228729248047,AAPL,2021-09-28
2021-09-29,144.4499969482422,142.02999877929688,142.47000122070312,142.8300018310547,74602000.0,142.4403839111328,AAPL,2021-09-29
2021-09-30,144.3800048828125,141.27999877929688,143.66000366210938,141.5,89056700.0,141.11399841308594,AAPL,2021-09-30
2021-10-01,142.9199981689453,139.11000061035156,141.89999389648438,142.64999389648438,94639600.0,142.2608642578125,AAPL,2021-10-01
2021-10-04,142.2100067138672,138.27000427246094,141.75999450683594,139.13999938964844,98322000.0,138.76043701171875,AAPL,2021-10-04
2021-10-05,142.24000549316406,139.36000061035156,139.49000549316406,141.11000061035156,80861100.0,140.72506713867188,AAPL,2021-10-05
2021-10-06,142.14999389648438,138.3699951171875,139.47000122070312,142.0,83221100.0,141.61264038085938,AAPL,2021-10-06
2021-10-07,144.22000122070312,142.72000122070312,143.05999755859375,143.2899932861328,61732700.0,142.89910888671875,AAPL,2021-10-07
2021-10-08,144.17999267578125,142.55999755859375,144.02999877929688,142.89999389648438,58773200.0,142.5101776123047,AAPL,2021-10-08
2021-10-11,144.80999755859375,141.80999755859375,142.27000427246094,142.80999755859375,64452200.0,142.42042541503906,AAPL,2021-10-11
2021-10-12,143.25,141.0399932861328,143.22999572753906,141.50999450683594,73035900.0,141.1239776611328,AAPL,2021-10-12
2021-10-13,141.39999389648438,139.1999969482422,141.24000549316406,140.91000366210938,78762700.0,140.52561950683594,AAPL,2021-10-13
2021-10-14,143.8800048828125,141.50999450683594,142.11000061035156,143.75999450683594,69907100.0,143.36782836914062,AAPL,2021-10-14
2021-10-15,144.89999389648438,143.50999450683594,143.77000427246094,144.83999633789062,67940300.0,144.44488525390625,AAPL,2021-10-15
2021-10-18,146.83999633789062,143.16000366210938,143.4499969482422,146.5500030517578,85589200.0,146.1502227783203,AAPL,2021-10-18
2021-10-19,149.1699981689453,146.5500030517578,147.00999450683594,148.75999450683594,76378900.0,148.35418701171875,AAPL,2021-10-19
2021-10-20,149.75,148.1199951171875,148.6999969482422,149.25999450683594,58418800.0,148.8528289794922,AAPL,2021-10-20
2021-10-21,149.63999938964844,147.8699951171875,148.80999755859375,149.47999572753906,61421000.0,149.0722198486328,AAPL,2021-10-21
2021-10-22,150.17999267578125,148.63999938964844,149.69000244140625,148.69000244140625,58883400.0,148.28439331054688,AAPL,2021-10-22
2021-10-25,149.3699951171875,147.6199951171875,148.67999267578125,148.63999938964844,50720600.0,148.23452758789062,AAPL,2021-10-25
2021-10-26,150.83999633789062,149.00999450683594,149.3300018310547,149.32000732421875,60893400.0,148.9126739501953,AAPL,2021-10-26
2021-10-27,149.72999572753906,148.49000549316406,149.36000061035156,148.85000610351562,56094900.0,148.44395446777344,AAPL,2021-10-27
2021-10-28,153.1699981689453,149.72000122070312,149.82000732421875,152.57000732421875,100077900.0,152.15380859375,AAPL,2021-10-28
2021-10-29,149.94000244140625,146.41000366210938,147.22000122070312,149.8000030517578,124953200.0,149.391357421875,AAPL,2021-10-29
2021-11-01,149.6999969482422,147.8000030517578,148.99000549316406,148.9600067138672,74588300.0,148.55364990234375,AAPL,2021-11-01
2021-11-02,151.57000732421875,148.64999389648438,148.66000366210938,150.02000427246094,69122000.0,149.6107635498047,AAPL,2021-11-02
2021-11-03,151.97000122070312,149.82000732421875,150.38999938964844,151.49000549316406,54511500.0,151.07676696777344,AAPL,2021-11-03
2021-11-04,152.42999267578125,150.63999938964844,151.5800018310547,150.9600067138672,60394600.0,150.54820251464844,AAPL,2021-11-04
2021-11-05,152.1999969482422,150.05999755859375,151.88999938964844,151.27999877929688,65463900.0,151.08750915527344,AAPL,2021-11-05
2021-11-08,151.57000732421875,150.16000366210938,151.41000366210938,150.44000244140625,55020900.0,150.2485809326172,AAPL,2021-11-08
2021-11-09,151.42999267578125,150.05999755859375,150.1999969482422,150.80999755859375,56787900.0,150.61810302734375,AAPL,2021-11-09
2021-11-10,150.1300048828125,147.85000610351562,150.02000427246094,147.9199981689453,65187100.0,147.73178100585938,AAPL,2021-11-10
2021-11-11,149.42999267578125,147.67999267578125,148.9600067138672,147.8699951171875,41000000.0,147.6818389892578,AAPL,2021-11-11
2021-11-12,150.39999389648438,147.47999572753906,148.42999267578125,149.99000549316406,63804000.0,149.7991485595703,AAPL,2021-11-12
2021-11-15,151.8800048828125,149.42999267578125,150.3699951171875,150.0,59222800.0,149.8091278076172,AAPL,2021-11-15
2021-11-16,151.49000549316406,149.33999633789062,149.94000244140625,151.0,59256200.0,150.807861328125,AAPL,2021-11-16
2021-11-17,155.0,150.99000549316406,151.0,153.49000549316406,88807000.0,153.29469299316406,AAPL,2021-11-17
2021-11-18,158.6699981689453,153.0500030517578,153.7100067138672,157.8699951171875,137827700.0,157.6691131591797,AAPL,2021-11-18
2021-11-19,161.02000427246094,156.52999877929688,157.64999389648438,160.5500030517578,117305600.0,160.34571838378906,AAPL,2021-11-19
2021-11-22,165.6999969482422,161.0,161.67999267578125,161.02000427246094,117467900.0,160.8151092529297,AAPL,2021-11-22
2021-11-23,161.8000030517578,159.05999755859375,161.1199951171875,161.41000366210938,96041900.0,161.20462036132812,AAPL,2021-11-23
2021-11-24,162.13999938964844,159.63999938964844,160.75,161.94000244140625,69463600.0,161.73394775390625,AAPL,2021-11-24
2021-11-26,160.4499969482422,156.36000061035156,159.57000732421875,156.80999755859375,76959800.0,156.6104736328125,AAPL,2021-11-26
2021-11-29,161.19000244140625,158.7899932861328,159.3699951171875,160.24000549316406,88748200.0,160.03610229492188,AAPL,2021-11-29
2021-11-30,165.52000427246094,159.9199981689453,159.99000549316406,165.3000030517578,174048100.0,165.0896759033203,AAPL,2021-11-30
2021-12-01,170.3000030517578,164.52999877929688,167.47999572753906,164.77000427246094,152052500.0,164.5603485107422,AAPL,2021-12-01
2021-12-02,164.1999969482422,157.8000030517578,158.74000549316406,163.75999450683594,136739200.0,163.55162048339844,AAPL,2021-12-02
2021-12-03,164.9600067138672,159.72000122070312,164.02000427246094,161.83999633789062,118023100.0,161.63406372070312,AAPL,2021-12-03
2021-12-06,167.8800048828125,164.27999877929688,164.2899932861328,165.32000732421875,107497000.0,165.10964965820312,AAPL,2021-12-06
2021-12-07,171.5800018310547,168.33999633789062,169.0800018310547,171.17999267578125,120405400.0,170.96217346191406,AAPL,2021-12-07
2021-12-08,175.9600067138672,170.6999969482422,172.1300048828125,175.0800018310547,116998900.0,174.8572235107422,AAPL,2021-12-08
2021-12-09,176.75,173.9199981689453,174.91000366210938,174.55999755859375,108923700.0,174.33787536621094,AAPL,2021-12-09
2021-12-10,179.6300048828125,174.69000244140625,175.2100067138672,179.4499969482422,115402700.0,179.22166442871094,AAPL,2021-12-10
2021-12-13,182.1300048828125,175.52999877929688,181.1199951171875,175.74000549316406,153237000.0,175.51638793945312,AAPL,2021-12-13
2021-12-14,177.74000549316406,172.2100067138672,175.25,174.3300018310547,139380400.0,174.10818481445312,AAPL,2021-12-14
2021-12-15,179.5,172.30999755859375,175.11000061035156,179.3000030517578,131063300.0,179.0718536376953,AAPL,2021-12-15
2021-12-16,181.13999938964844,170.75,179.27999877929688,172.25999450683594,150185800.0,172.04080200195312,AAPL,2021-12-16
2021-12-17,173.47000122070312,169.69000244140625,169.92999267578125,171.13999938964844,195432700.0,170.9222412109375,AAPL,2021-12-17
2021-12-20,170.5800018310547,167.4600067138672,168.27999877929688,169.75,107499100.0,169.53399658203125,AAPL,2021-12-20
2021-12-21,173.1999969482422,169.1199951171875,171.55999755859375,172.99000549316406,91185900.0,172.76988220214844,AAPL,2021-12-21
2021-12-22,175.86000061035156,172.14999389648438,173.0399932861328,175.63999938964844,92135300.0,175.41650390625,AAPL,2021-12-22
2021-12-23,176.85000610351562,175.27000427246094,175.85000610351562,176.27999877929688,68356600.0,176.05569458007812,AAPL,2021-12-23
2021-12-27,180.4199981689453,177.07000732421875,177.08999633789062,180.3300018310547,74919600.0,180.1005401611328,AAPL,2021-12-27
2021-12-28,181.3300018310547,178.52999877929688,180.16000366210938,179.2899932861328,79144300.0,179.06185913085938,AAPL,2021-12-28
2021-12-29,180.6300048828125,178.13999938964844,179.3300018310547,179.3800048828125,62348900.0,179.15174865722656,AAPL,2021-12-29
2021-12-30,180.57000732421875,178.08999633789062,179.47000122070312,178.1999969482422,59773000.0,177.97325134277344,AAPL,2021-12-30
2021-12-31,179.22999572753906,177.25999450683594,178.08999633789062,177.57000732421875,64062300.0,177.34405517578125,AAPL,2021-12-31
2022-01-03,182.8800048828125,177.7100067138672,177.8300018310547,182.00999450683594,104487900.0,181.7783966064453,AAPL,2022-01-03
2022-01-04,182.94000244140625,179.1199951171875,182.6300048828125,179.6999969482422,99310400.0,179.47134399414062,AAPL,2022-01-04
2022-01-05,180.1699981689453,174.63999938964844,179.61000061035156,174.9199981689453,94537600.0,174.69741821289062,AAPL,2022-01-05
2022-01-06,175.3000030517578,171.63999938964844,172.6999969482422,172.0,96904000.0,171.78114318847656,AAPL,2022-01-06
2022-01-07,174.13999938964844,171.02999877929688,172.88999938964844,172.1699981689453,86709100.0,171.950927734375,AAPL,2022-01-07
2022-01-10,172.5,168.1699981689453,169.0800018310547,172.19000244140625,106765600.0,171.9709014892578,AAPL,2022-01-10
2022-01-11,175.17999267578125,170.82000732421875,172.32000732421875,175.0800018310547,76138300.0,174.8572235107422,AAPL,2022-01-11
2022-01-12,177.17999267578125,174.82000732421875,176.1199951171875,175.52999877929688,74805200.0,175.306640625,AAPL,2022-01-12
2022-01-13,176.6199951171875,171.7899932861328,175.77999877929688,172.19000244140625,84505800.0,171.9709014892578,AAPL,2022-01-13
2022-01-14,173.77999877929688,171.08999633789062,171.33999633789062,173.07000732421875,80440800.0,172.84979248046875,AAPL,2022-01-14
2022-01-18,172.5399932861328,169.41000366210938,171.50999450683594,169.8000030517578,90956700.0,169.5839385986328,AAPL,2022-01-18
2022-01-19,171.0800018310547,165.94000244140625,170.0,166.22999572753906,94815000.0,166.0184783935547,AAPL,2022-01-19
2022-01-20,169.67999267578125,164.17999267578125,166.97999572753906,164.50999450683594,91420500.0,164.3006591796875,AAPL,2022-01-20
2022-01-21,166.3300018310547,162.3000030517578,164.4199981689453,162.41000366210938,122848900.0,162.20335388183594,AAPL,2022-01-21
2022-01-24,162.3000030517578,154.6999969482422,160.02000427246094,161.6199951171875,162294600.0,161.41433715820312,AAPL,2022-01-24
2022-01-25,162.75999450683594,157.02000427246094,158.97999572753906,159.77999877929688,115798400.0,159.57669067382812,AAPL,2022-01-25
2022-01-26,164.38999938964844,157.82000732421875,163.5,159.69000244140625,108275300.0,159.48680114746094,AAPL,2022-01-26
2022-01-27,163.83999633789062,158.27999877929688,162.4499969482422,159.22000122070312,121954600.0,159.0174102783203,AAPL,2022-01-27
2022-01-28,170.35000610351562,162.8000030517578,165.7100067138672,170.3300018310547,179935700.0,170.11326599121094,AAPL,2022-01-28
2022-01-31,175.0,169.50999450683594,170.16000366210938,174.77999877929688,115541600.0,174.55760192871094,AAPL,2022-01-31
2022-02-01,174.83999633789062,172.30999755859375,174.00999450683594,174.61000061035156,86213900.0,174.3878173828125,AAPL,2022-02-01
2022-02-02,175.8800048828125,173.3300018310547,174.75,175.83999633789062,84914300.0,175.6162567138672,AAPL,2022-02-02
2022-02-03,176.24000549316406,172.1199951171875,174.47999572753906,172.89999389648438,89418100.0,172.67999267578125,AAPL,2022-02-03
2022-02-04,174.10000610351562,170.67999267578125,171.67999267578125,172.38999938964844,82465400.0,172.38999938964844,AAPL,2022-02-04
2022-02-07,173.9499969482422,170.9499969482422,172.86000061035156,171.66000366210938,77251200.0,171.66000366210938,AAPL,2022-02-07
2022-02-08,175.35000610351562,171.42999267578125,171.72999572753906,174.8300018310547,74829200.0,174.8300018310547,AAPL,2022-02-08
2022-02-09,176.64999389648438,174.89999389648438,176.0500030517578,176.27999877929688,71285000.0,176.27999877929688,AAPL,2022-02-09
2022-02-10,175.47999572753906,171.5500030517578,174.13999938964844,172.1199951171875,90865900.0,172.1199951171875,AAPL,2022-02-10
2022-02-11,173.0800018310547,168.0399932861328,172.3300018310547,168.63999938964844,98670700.0,168.63999938964844,AAPL,2022-02-11
2022-02-14,169.5800018310547,166.55999755859375,167.3699951171875,168.8800048828125,86185500.0,168.8800048828125,AAPL,2022-02-14
2022-02-15,172.9499969482422,170.25,170.97000122070312,172.7899932861328,62527400.0,172.7899932861328,AAPL,2022-02-15
2022-02-16,173.33999633789062,170.0500030517578,171.85000610351562,172.5500030517578,61177400.0,172.5500030517578,AAPL,2022-02-16
2022-02-17,171.91000366210938,168.47000122070312,171.02999877929688,168.8800048828125,69589300.0,168.8800048828125,AAPL,2022-02-17
2022-02-18,170.5399932861328,166.19000244140625,169.82000732421875,167.3000030517578,82772700.0,167.3000030517578,AAPL,2022-02-18
2022-02-22,166.69000244140625,162.14999389648438,164.97999572753906,164.32000732421875,91162800.0,164.32000732421875,AAPL,2022-02-22
2022-02-23,166.14999389648438,159.75,165.5399932861328,160.07000732421875,90009200.0,160.07000732421875,AAPL,2022-02-23
2022-02-24,162.85000610351562,152.0,152.5800018310547,162.74000549316406,141147500.0,162.74000549316406,AAPL,2022-02-24
2022-02-25,165.1199951171875,160.8699951171875,163.83999633789062,164.85000610351562,91974200.0,164.85000610351562,AAPL,2022-02-25
2022-02-28,165.4199981689453,162.42999267578125,163.05999755859375,165.1199951171875,95056600.0,165.1199951171875,AAPL,2022-02-28
2022-03-01,166.60000610351562,161.97000122070312,164.6999969482422,163.1999969482422,83474400.0,163.1999969482422,AAPL,2022-03-01
2022-03-02,167.36000061035156,162.9499969482422,164.38999938964844,166.55999755859375,79724800.0,166.55999755859375,AAPL,2022-03-02
2022-03-03,168.91000366210938,165.5500030517578,168.47000122070312,166.22999572753906,76678400.0,166.22999572753906,AAPL,2022-03-03
2022-03-04,165.5500030517578,162.10000610351562,164.49000549316406,163.1699981689453,83737200.0,163.1699981689453,AAPL,2022-03-04
2022-03-07,165.02000427246094,159.0399932861328,163.36000061035156,159.3000030517578,96418800.0,159.3000030517578,AAPL,2022-03-07
2022-03-08,162.8800048828125,155.8000030517578,158.82000732421875,157.44000244140625,131148300.0,157.44000244140625,AAPL,2022-03-08
2022-03-09,163.41000366210938,159.41000366210938,161.47999572753906,162.9499969482422,91454900.0,162.9499969482422,AAPL,2022-03-09
2022-03-10,160.38999938964844,155.97999572753906,160.1999969482422,158.52000427246094,105342000.0,158.52000427246094,AAPL,2022-03-10
2022-03-11,159.27999877929688,154.5,158.92999267578125,154.72999572753906,96970100.0,154.72999572753906,AAPL,2022-03-11
2022-03-14,154.1199951171875,150.10000610351562,151.4499969482422,150.6199951171875,108732100.0,150.6199951171875,AAPL,2022-03-14
2022-03-15,155.57000732421875,150.3800048828125,150.89999389648438,155.08999633789062,92964300.0,155.08999633789062,AAPL,2022-03-15
2022-03-16,160.0,154.4600067138672,157.0500030517578,159.58999633789062,102300200.0,159.58999633789062,AAPL,2022-03-16
2022-03-17,161.0,157.6300048828125,158.61000061035156,160.6199951171875,75615400.0,160.6199951171875,AAPL,2022-03-17
2022-03-18,164.47999572753906,159.75999450683594,160.50999450683594,163.97999572753906,123511700.0,163.97999572753906,AAPL,2022-03-18
2022-03-21,166.35000610351562,163.00999450683594,163.50999450683594,165.3800048828125,95811400.0,165.3800048828125,AAPL,2022-03-21
2022-03-22,169.4199981689453,164.91000366210938,165.50999450683594,168.82000732421875,81532000.0,168.82000732421875,AAPL,2022-03-22
2022-03-23,172.63999938964844,167.64999389648438,167.99000549316406,170.2100067138672,98062700.0,170.2100067138672,AAPL,2022-03-23
2022-03-24,174.13999938964844,170.2100067138672,171.05999755859375,174.07000732421875,90131400.0,174.07000732421875,AAPL,2022-03-24
2022-03-25,175.27999877929688,172.75,173.8800048828125,174.72000122070312,80546200.0,174.72000122070312,AAPL,2022-03-25
2022-03-28,175.72999572753906,172.0,172.1699981689453,175.60000610351562,90371900.0,175.60000610351562,AAPL,2022-03-28
2022-03-29,179.00999450683594,176.33999633789062,176.69000244140625,178.9600067138672,100589400.0,178.9600067138672,AAPL,2022-03-29
2022-03-30,179.61000061035156,176.6999969482422,178.5500030517578,177.77000427246094,92633200.0,177.77000427246094,AAPL,2022-03-30
2022-03-31,178.02999877929688,174.39999389648438,177.83999633789062,174.61000061035156,103049300.0,174.61000061035156,AAPL,2022-03-31
2022-04-01,174.8800048828125,171.94000244140625,174.02999877929688,174.30999755859375,78699800.0,174.30999755859375,AAPL,2022-04-01
2022-04-04,178.49000549316406,174.44000244140625,174.57000732421875,178.44000244140625,76468400.0,178.44000244140625,AAPL,2022-04-04
2022-04-05,178.3000030517578,174.4199981689453,177.5,175.05999755859375,73401800.0,175.05999755859375,AAPL,2022-04-05
2022-04-06,173.6300048828125,170.1300048828125,172.36000061035156,171.8300018310547,89058800.0,171.8300018310547,AAPL,2022-04-06
2022-04-07,173.36000061035156,169.85000610351562,171.16000366210938,172.13999938964844,77594700.0,172.13999938964844,AAPL,2022-04-07
2022-04-08,171.77999877929688,169.1999969482422,171.77999877929688,170.08999633789062,76515900.0,170.08999633789062,AAPL,2022-04-08
2022-04-11,169.02999877929688,165.5,168.7100067138672,165.75,72246700.0,165.75,AAPL,2022-04-11
2022-04-12,169.8699951171875,166.63999938964844,168.02000427246094,167.66000366210938,79265200.0,167.66000366210938,AAPL,2022-04-12
2022-04-13,171.0399932861328,166.77000427246094,167.38999938964844,170.39999389648438,70618900.0,170.39999389648438,AAPL,2022-04-13
2022-04-14,171.27000427246094,165.0399932861328,170.6199951171875,165.2899932861328,75329400.0,165.2899932861328,AAPL,2022-04-14
